ID,CUENTA3,SALDO,FECHA_CONTABLE,CODIGO6_CONCEPTO,NUMERO2_MVTO,IMPORTE,INDICA_DEBE_HABER,COD_INTERFASE,DESCRIPCION,NIF_EMISOR,DESC_EMISOR,DOMICILIADO
1,0128000000000001,508670.62,2012-12-18 00:00:00,G48538,75,441244.94,E,94,Tsfdscmebssrhzvuigtcwivkdn,G3260626Q,Jcfsydwqep Hjkpmywymmpyasxgv,S
2,0128000000000002,830594.91,2011-02-14 00:00:00,Y21377,58,765489.44,B,66,Tbzuifdpxjfrcdjipnsqgxqajxkqmg,61687665B,Vvvocm Vrtoo,S
3,0128000000000003,147160.22,2009-08-04 01:00:00,984482,32,116875,C,51,Xvxvvzrcdwimaojexxqjpdq,02323557Q,Zfjygmmbvz Ukiiymznpsabtwb,S
4,0128000000000004,721609.66,2008-07-26 01:00:00,438555,7,280017.94,I,48,Vmvvafcghkswybtjwetqajczmpp,S7509408J,Rfwbzijh Rjvlbbxovucisxzvlai,N
5,0128000000000005,315571.52,2008-10-14 01:00:00,126065,69,73516.82,U,37,Pkjmzdyovozbzuivsmfxfswbjtomvn,J1290387J,Cnsxszakshnm Ojnymiakkmcw,N
6,0128000000000006,978451.02,2009-01-19 00:00:00,809510,57,623236.8,O,17,Ieuawpzmtydhvgxtnsofaznitfezv,G3310485L,Claiubqvaj Vswrzmlg,N
7,0128000000000007,67101.86,2009-05-28 01:00:00,J04391,24,47876.15,I,68,Okvkzyjcmmmzgwiuilpgi,41294601I,Qqytvlu Pcybkvabiwyqv,N
8,0128000000000008,347354.33,2008-09-23 01:00:00,B56478,29,205703.91,N,55,Qwygfoctbupprkvogwhmzvfbrzqxiw,B6026996O,Ulgawnoiqi Zdkvo,S
9,0128000000000009,370985.07,2011-05-17 01:00:00,W93735,43,51064.66,C,74,Uosrrwodziuzskggiwebibscuns,56154184H,Lfnhcslaaf Yqkhbykvojrmuyy,S
10,0128000000000010,907327.32,2011-07-24 01:00:00,R51186,27,604046.3,Q,28,Loggstssvertgqnejshlgbe,U5124134S,Dtejmusdx Kglbqas,N